info face=null size=36 bold=0 italic=0 charset=ASCII unicode=0 stretchH=100 smooth=1 aa=1 padding=0,0,0,0 spacing=1,1 
common lineHeight=41 base=26 scaleW=256 scaleH=256 pages=1 packed=0 
page id=0 file="beats.png"
chars count=255
char id=1    x=0    y=8    width=0    height=42    xoffset=0    yoffset=0    xadvance=0     page=0    chnl=0
char id=2    x=0    y=8    width=0    height=42    xoffset=0    yoffset=0    xadvance=-1     page=0    chnl=0
char id=3    x=0    y=8    width=0    height=42    xoffset=0    yoffset=0    xadvance=11     page=0    chnl=0
char id=4    x=0    y=8    width=0    height=42    xoffset=0    yoffset=0    xadvance=11     page=0    chnl=0
char id=5    x=0    y=8    width=0    height=42    xoffset=0    yoffset=0    xadvance=11     page=0    chnl=0
char id=6    x=0    y=8    width=0    height=42    xoffset=0    yoffset=0    xadvance=11     page=0    chnl=0
char id=7    x=0    y=8    width=0    height=42    xoffset=0    yoffset=0    xadvance=11     page=0    chnl=0
char id=8    x=0    y=8    width=0    height=42    xoffset=0    yoffset=0    xadvance=-1     page=0    chnl=0
char id=9    x=0    y=8    width=0    height=42    xoffset=0    yoffset=0    xadvance=-1     page=0    chnl=0
char id=10    x=0    y=8    width=0    height=42    xoffset=0    yoffset=0    xadvance=-1     page=0    chnl=0
char id=11    x=0    y=8    width=0    height=42    xoffset=0    yoffset=0    xadvance=11     page=0    chnl=0
char id=12    x=0    y=8    width=0    height=42    xoffset=0    yoffset=0    xadvance=11     page=0    chnl=0
char id=13    x=0    y=8    width=0    height=42    xoffset=0    yoffset=0    xadvance=-1     page=0    chnl=0
char id=14    x=0    y=8    width=0    height=42    xoffset=0    yoffset=0    xadvance=11     page=0    chnl=0
char id=15    x=0    y=8    width=0    height=42    xoffset=0    yoffset=0    xadvance=11     page=0    chnl=0
char id=16    x=0    y=8    width=0    height=42    xoffset=0    yoffset=0    xadvance=11     page=0    chnl=0
char id=17    x=0    y=8    width=0    height=42    xoffset=0    yoffset=0    xadvance=11     page=0    chnl=0
char id=18    x=0    y=8    width=0    height=42    xoffset=0    yoffset=0    xadvance=11     page=0    chnl=0
char id=19    x=0    y=8    width=0    height=42    xoffset=0    yoffset=0    xadvance=11     page=0    chnl=0
char id=20    x=0    y=8    width=0    height=42    xoffset=0    yoffset=0    xadvance=11     page=0    chnl=0
char id=21    x=0    y=8    width=0    height=42    xoffset=0    yoffset=0    xadvance=11     page=0    chnl=0
char id=22    x=0    y=8    width=0    height=42    xoffset=0    yoffset=0    xadvance=11     page=0    chnl=0
char id=23    x=0    y=8    width=0    height=42    xoffset=0    yoffset=0    xadvance=11     page=0    chnl=0
char id=24    x=0    y=8    width=0    height=42    xoffset=0    yoffset=0    xadvance=11     page=0    chnl=0
char id=25    x=0    y=8    width=0    height=42    xoffset=0    yoffset=0    xadvance=11     page=0    chnl=0
char id=26    x=0    y=8    width=0    height=42    xoffset=0    yoffset=0    xadvance=11     page=0    chnl=0
char id=27    x=0    y=8    width=0    height=42    xoffset=0    yoffset=0    xadvance=11     page=0    chnl=0
char id=28    x=0    y=8    width=0    height=42    xoffset=0    yoffset=0    xadvance=11     page=0    chnl=0
char id=29    x=0    y=8    width=0    height=42    xoffset=0    yoffset=0    xadvance=-1     page=0    chnl=0
char id=30    x=0    y=8    width=0    height=42    xoffset=0    yoffset=0    xadvance=11     page=0    chnl=0
char id=31    x=0    y=8    width=0    height=42    xoffset=0    yoffset=0    xadvance=11     page=0    chnl=0
char id=32    x=0    y=8    width=0    height=42    xoffset=0    yoffset=0    xadvance=6     page=0    chnl=0
char id=33    x=0    y=8    width=8    height=42    xoffset=1    yoffset=0    xadvance=8     page=0    chnl=0
char id=34    x=8    y=8    width=10    height=42    xoffset=0    yoffset=0    xadvance=8     page=0    chnl=0
char id=35    x=18    y=8    width=0    height=42    xoffset=0    yoffset=0    xadvance=0     page=0    chnl=0
char id=36    x=18    y=8    width=0    height=42    xoffset=0    yoffset=0    xadvance=0     page=0    chnl=0
char id=37    x=18    y=8    width=0    height=42    xoffset=0    yoffset=0    xadvance=0     page=0    chnl=0
char id=38    x=18    y=8    width=0    height=42    xoffset=0    yoffset=0    xadvance=0     page=0    chnl=0
char id=39    x=18    y=8    width=5    height=42    xoffset=0    yoffset=0    xadvance=3     page=0    chnl=0
char id=40    x=23    y=8    width=0    height=42    xoffset=0    yoffset=0    xadvance=0     page=0    chnl=0
char id=41    x=23    y=8    width=0    height=42    xoffset=0    yoffset=0    xadvance=0     page=0    chnl=0
char id=42    x=23    y=8    width=0    height=42    xoffset=0    yoffset=0    xadvance=0     page=0    chnl=0
char id=43    x=23    y=8    width=0    height=42    xoffset=0    yoffset=0    xadvance=0     page=0    chnl=0
char id=44    x=23    y=8    width=8    height=42    xoffset=0    yoffset=0    xadvance=6     page=0    chnl=0
char id=45    x=31    y=8    width=8    height=42    xoffset=0    yoffset=0    xadvance=7     page=0    chnl=0
char id=46    x=39    y=8    width=7    height=42    xoffset=1    yoffset=0    xadvance=7     page=0    chnl=0
char id=47    x=46    y=8    width=0    height=42    xoffset=0    yoffset=0    xadvance=0     page=0    chnl=0
char id=48    x=46    y=8    width=18    height=42    xoffset=0    yoffset=0    xadvance=16     page=0    chnl=0
char id=49    x=64    y=8    width=12    height=42    xoffset=0    yoffset=0    xadvance=10     page=0    chnl=0
char id=50    x=76    y=8    width=19    height=42    xoffset=0    yoffset=0    xadvance=17     page=0    chnl=0
char id=51    x=95    y=8    width=17    height=42    xoffset=0    yoffset=0    xadvance=16     page=0    chnl=0
char id=52    x=112    y=8    width=18    height=42    xoffset=0    yoffset=0    xadvance=17     page=0    chnl=0
char id=53    x=130    y=8    width=17    height=42    xoffset=0    yoffset=0    xadvance=16     page=0    chnl=0
char id=54    x=147    y=8    width=18    height=42    xoffset=0    yoffset=0    xadvance=16     page=0    chnl=0
char id=55    x=165    y=8    width=17    height=42    xoffset=0    yoffset=0    xadvance=16     page=0    chnl=0
char id=56    x=182    y=8    width=18    height=42    xoffset=0    yoffset=0    xadvance=16     page=0    chnl=0
char id=57    x=200    y=8    width=18    height=42    xoffset=0    yoffset=0    xadvance=16     page=0    chnl=0
char id=58    x=218    y=8    width=7    height=42    xoffset=0    yoffset=0    xadvance=6     page=0    chnl=0
char id=59    x=225    y=8    width=0    height=42    xoffset=0    yoffset=0    xadvance=0     page=0    chnl=0
char id=60    x=225    y=8    width=0    height=42    xoffset=0    yoffset=0    xadvance=0     page=0    chnl=0
char id=61    x=225    y=8    width=0    height=42    xoffset=0    yoffset=0    xadvance=0     page=0    chnl=0
char id=62    x=225    y=8    width=0    height=42    xoffset=0    yoffset=0    xadvance=0     page=0    chnl=0
char id=63    x=225    y=8    width=17    height=42    xoffset=1    yoffset=0    xadvance=17     page=0    chnl=0
char id=64    x=242    y=8    width=0    height=42    xoffset=0    yoffset=0    xadvance=0     page=0    chnl=0
char id=65    x=0    y=49    width=21    height=42    xoffset=-2    yoffset=0    xadvance=15     page=0    chnl=0
char id=66    x=21    y=49    width=19    height=42    xoffset=0    yoffset=0    xadvance=18     page=0    chnl=0
char id=67    x=40    y=49    width=21    height=42    xoffset=0    yoffset=0    xadvance=20     page=0    chnl=0
char id=68    x=61    y=49    width=21    height=42    xoffset=0    yoffset=0    xadvance=19     page=0    chnl=0
char id=69    x=82    y=49    width=19    height=42    xoffset=0    yoffset=0    xadvance=18     page=0    chnl=0
char id=70    x=101    y=49    width=18    height=42    xoffset=0    yoffset=0    xadvance=16     page=0    chnl=0
char id=71    x=119    y=49    width=21    height=42    xoffset=0    yoffset=0    xadvance=20     page=0    chnl=0
char id=72    x=140    y=49    width=21    height=42    xoffset=0    yoffset=0    xadvance=20     page=0    chnl=0
char id=73    x=161    y=49    width=9    height=42    xoffset=0    yoffset=0    xadvance=8     page=0    chnl=0
char id=74    x=170    y=49    width=17    height=42    xoffset=0    yoffset=0    xadvance=16     page=0    chnl=0
char id=75    x=187    y=49    width=22    height=42    xoffset=0    yoffset=0    xadvance=20     page=0    chnl=0
char id=76    x=209    y=49    width=16    height=42    xoffset=0    yoffset=0    xadvance=15     page=0    chnl=0
char id=77    x=225    y=49    width=25    height=42    xoffset=0    yoffset=0    xadvance=24     page=0    chnl=0
char id=78    x=0    y=90    width=22    height=42    xoffset=0    yoffset=0    xadvance=20     page=0    chnl=0
char id=79    x=22    y=90    width=22    height=42    xoffset=0    yoffset=0    xadvance=20     page=0    chnl=0
char id=80    x=44    y=90    width=20    height=42    xoffset=0    yoffset=0    xadvance=19     page=0    chnl=0
char id=81    x=64    y=90    width=22    height=42    xoffset=0    yoffset=0    xadvance=20     page=0    chnl=0
char id=82    x=86    y=90    width=20    height=42    xoffset=0    yoffset=0    xadvance=19     page=0    chnl=0
char id=83    x=106    y=90    width=19    height=42    xoffset=0    yoffset=0    xadvance=17     page=0    chnl=0
char id=84    x=125    y=90    width=19    height=42    xoffset=0    yoffset=0    xadvance=15     page=0    chnl=0
char id=85    x=144    y=90    width=21    height=42    xoffset=0    yoffset=0    xadvance=20     page=0    chnl=0
char id=86    x=165    y=90    width=21    height=42    xoffset=-1    yoffset=0    xadvance=15     page=0    chnl=0
char id=87    x=186    y=90    width=26    height=42    xoffset=1    yoffset=0    xadvance=23     page=0    chnl=0
char id=88    x=212    y=90    width=23    height=42    xoffset=0    yoffset=0    xadvance=21     page=0    chnl=0
char id=89    x=235    y=90    width=21    height=42    xoffset=0    yoffset=0    xadvance=17     page=0    chnl=0
char id=90    x=0    y=131    width=20    height=42    xoffset=0    yoffset=0    xadvance=19     page=0    chnl=0
char id=91    x=20    y=131    width=0    height=42    xoffset=0    yoffset=0    xadvance=0     page=0    chnl=0
char id=92    x=20    y=131    width=0    height=42    xoffset=0    yoffset=0    xadvance=0     page=0    chnl=0
char id=93    x=20    y=131    width=0    height=42    xoffset=0    yoffset=0    xadvance=0     page=0    chnl=0
char id=94    x=20    y=131    width=0    height=42    xoffset=0    yoffset=0    xadvance=0     page=0    chnl=0
char id=95    x=20    y=131    width=0    height=42    xoffset=0    yoffset=0    xadvance=0     page=0    chnl=0
char id=96    x=20    y=131    width=0    height=42    xoffset=0    yoffset=0    xadvance=0     page=0    chnl=0
char id=97    x=20    y=131    width=18    height=42    xoffset=0    yoffset=0    xadvance=16     page=0    chnl=0
char id=98    x=38    y=131    width=18    height=42    xoffset=0    yoffset=0    xadvance=17     page=0    chnl=0
char id=99    x=56    y=131    width=17    height=42    xoffset=0    yoffset=0    xadvance=16     page=0    chnl=0
char id=100    x=73    y=131    width=19    height=42    xoffset=0    yoffset=0    xadvance=17     page=0    chnl=0
char id=101    x=92    y=131    width=18    height=42    xoffset=0    yoffset=0    xadvance=16     page=0    chnl=0
char id=102    x=110    y=131    width=12    height=42    xoffset=0    yoffset=0    xadvance=10     page=0    chnl=0
char id=103    x=122    y=131    width=18    height=42    xoffset=0    yoffset=0    xadvance=17     page=0    chnl=0
char id=104    x=140    y=131    width=17    height=42    xoffset=0    yoffset=0    xadvance=16     page=0    chnl=0
char id=105    x=157    y=131    width=8    height=42    xoffset=0    yoffset=0    xadvance=7     page=0    chnl=0
char id=106    x=165    y=131    width=11    height=42    xoffset=0    yoffset=0    xadvance=10     page=0    chnl=0
char id=107    x=176    y=131    width=18    height=42    xoffset=0    yoffset=0    xadvance=17     page=0    chnl=0
char id=108    x=194    y=131    width=8    height=42    xoffset=0    yoffset=0    xadvance=7     page=0    chnl=0
char id=109    x=202    y=131    width=27    height=42    xoffset=0    yoffset=0    xadvance=26     page=0    chnl=0
char id=110    x=229    y=131    width=18    height=42    xoffset=0    yoffset=0    xadvance=16     page=0    chnl=0
char id=111    x=0    y=172    width=18    height=42    xoffset=0    yoffset=0    xadvance=16     page=0    chnl=0
char id=112    x=18    y=172    width=19    height=42    xoffset=0    yoffset=0    xadvance=17     page=0    chnl=0
char id=113    x=37    y=172    width=18    height=42    xoffset=0    yoffset=0    xadvance=17     page=0    chnl=0
char id=114    x=55    y=172    width=13    height=42    xoffset=0    yoffset=0    xadvance=11     page=0    chnl=0
char id=115    x=68    y=172    width=16    height=42    xoffset=0    yoffset=0    xadvance=15     page=0    chnl=0
char id=116    x=84    y=172    width=11    height=42    xoffset=0    yoffset=0    xadvance=10     page=0    chnl=0
char id=117    x=95    y=172    width=18    height=42    xoffset=0    yoffset=0    xadvance=16     page=0    chnl=0
char id=118    x=113    y=172    width=17    height=42    xoffset=0    yoffset=0    xadvance=14     page=0    chnl=0
char id=119    x=130    y=172    width=25    height=42    xoffset=0    yoffset=0    xadvance=22     page=0    chnl=0
char id=120    x=155    y=172    width=19    height=42    xoffset=0    yoffset=0    xadvance=17     page=0    chnl=0
char id=121    x=174    y=172    width=16    height=42    xoffset=0    yoffset=0    xadvance=13     page=0    chnl=0
char id=122    x=190    y=172    width=16    height=42    xoffset=0    yoffset=0    xadvance=15     page=0    chnl=0
char id=123    x=206    y=172    width=0    height=42    xoffset=0    yoffset=0    xadvance=0     page=0    chnl=0
char id=124    x=206    y=172    width=0    height=42    xoffset=0    yoffset=0    xadvance=0     page=0    chnl=0
char id=125    x=206    y=172    width=0    height=42    xoffset=0    yoffset=0    xadvance=0     page=0    chnl=0
char id=126    x=206    y=172    width=0    height=42    xoffset=0    yoffset=0    xadvance=0     page=0    chnl=0
char id=127    x=206    y=172    width=0    height=42    xoffset=0    yoffset=0    xadvance=13     page=0    chnl=0
char id=128    x=206    y=172    width=17    height=42    xoffset=2    yoffset=0    xadvance=18     page=0    chnl=0
char id=129    x=223    y=172    width=17    height=42    xoffset=2    yoffset=0    xadvance=18     page=0    chnl=0
char id=130    x=240    y=172    width=7    height=42    xoffset=0    yoffset=0    xadvance=6     page=0    chnl=0
char id=131    x=247    y=172    width=0    height=42    xoffset=0    yoffset=0    xadvance=35     page=0    chnl=0
char id=132    x=0    y=213    width=11    height=42    xoffset=1    yoffset=0    xadvance=12     page=0    chnl=0
char id=133    x=11    y=213    width=17    height=42    xoffset=2    yoffset=0    xadvance=20     page=0    chnl=0
char id=134    x=28    y=213    width=13    height=42    xoffset=1    yoffset=0    xadvance=12     page=0    chnl=0
char id=135    x=41    y=213    width=13    height=42    xoffset=1    yoffset=0    xadvance=12     page=0    chnl=0
char id=136    x=54    y=213    width=10    height=42    xoffset=3    yoffset=0    xadvance=10     page=0    chnl=0
char id=137    x=64    y=213    width=29    height=42    xoffset=3    yoffset=0    xadvance=31     page=0    chnl=0
char id=138    x=93    y=213    width=17    height=42    xoffset=2    yoffset=0    xadvance=18     page=0    chnl=0
char id=139    x=110    y=213    width=9    height=42    xoffset=1    yoffset=0    xadvance=9     page=0    chnl=0
char id=140    x=119    y=213    width=29    height=42    xoffset=2    yoffset=0    xadvance=31     page=0    chnl=0
char id=141    x=148    y=213    width=17    height=42    xoffset=2    yoffset=0    xadvance=18     page=0    chnl=0
char id=142    x=165    y=213    width=17    height=42    xoffset=2    yoffset=0    xadvance=18     page=0    chnl=0
char id=143    x=182    y=213    width=17    height=42    xoffset=2    yoffset=0    xadvance=18     page=0    chnl=0
char id=144    x=199    y=213    width=17    height=42    xoffset=2    yoffset=0    xadvance=18     page=0    chnl=0
char id=145    x=216    y=213    width=6    height=42    xoffset=2    yoffset=0    xadvance=6     page=0    chnl=0
char id=146    x=222    y=213    width=6    height=42    xoffset=2    yoffset=0    xadvance=6     page=0    chnl=0
char id=147    x=228    y=213    width=11    height=42    xoffset=3    yoffset=0    xadvance=12     page=0    chnl=0
char id=148    x=239    y=213    width=12    height=42    xoffset=2    yoffset=0    xadvance=12     page=0    chnl=0
char id=149    x=0    y=254    width=9    height=42    xoffset=2    yoffset=0    xadvance=10     page=0    chnl=0
char id=150    x=9    y=254    width=10    height=42    xoffset=3    yoffset=0    xadvance=12     page=0    chnl=0
char id=151    x=19    y=254    width=17    height=42    xoffset=3    yoffset=0    xadvance=19     page=0    chnl=0
char id=152    x=36    y=254    width=13    height=42    xoffset=4    yoffset=0    xadvance=15     page=0    chnl=0
char id=153    x=49    y=254    width=18    height=42    xoffset=4    yoffset=0    xadvance=21     page=0    chnl=0
char id=154    x=67    y=254    width=17    height=42    xoffset=2    yoffset=0    xadvance=18     page=0    chnl=0
char id=155    x=84    y=254    width=8    height=42    xoffset=3    yoffset=0    xadvance=9     page=0    chnl=0
char id=156    x=92    y=254    width=29    height=42    xoffset=2    yoffset=0    xadvance=31     page=0    chnl=0
char id=157    x=121    y=254    width=17    height=42    xoffset=2    yoffset=0    xadvance=18     page=0    chnl=0
char id=158    x=138    y=254    width=17    height=42    xoffset=2    yoffset=0    xadvance=18     page=0    chnl=0
char id=159    x=155    y=254    width=15    height=42    xoffset=3    yoffset=0    xadvance=15     page=0    chnl=0
char id=160    x=170    y=254    width=0    height=42    xoffset=0    yoffset=0    xadvance=6     page=0    chnl=0
char id=161    x=170    y=254    width=0    height=42    xoffset=0    yoffset=0    xadvance=0     page=0    chnl=0
char id=162    x=170    y=254    width=0    height=42    xoffset=0    yoffset=0    xadvance=0     page=0    chnl=0
char id=163    x=170    y=254    width=0    height=42    xoffset=0    yoffset=0    xadvance=0     page=0    chnl=0
char id=164    x=170    y=254    width=0    height=42    xoffset=0    yoffset=0    xadvance=0     page=0    chnl=0
char id=165    x=170    y=254    width=0    height=42    xoffset=0    yoffset=0    xadvance=0     page=0    chnl=0
char id=166    x=170    y=254    width=0    height=42    xoffset=0    yoffset=0    xadvance=0     page=0    chnl=0
char id=167    x=170    y=254    width=0    height=42    xoffset=0    yoffset=0    xadvance=0     page=0    chnl=0
char id=168    x=170    y=254    width=0    height=42    xoffset=0    yoffset=0    xadvance=0     page=0    chnl=0
char id=169    x=170    y=254    width=0    height=42    xoffset=0    yoffset=0    xadvance=0     page=0    chnl=0
char id=170    x=170    y=254    width=0    height=42    xoffset=0    yoffset=0    xadvance=0     page=0    chnl=0
char id=171    x=170    y=254    width=0    height=42    xoffset=0    yoffset=0    xadvance=0     page=0    chnl=0
char id=172    x=170    y=254    width=0    height=42    xoffset=0    yoffset=0    xadvance=0     page=0    chnl=0
char id=173    x=170    y=254    width=8    height=42    xoffset=0    yoffset=0    xadvance=7     page=0    chnl=0
char id=174    x=178    y=254    width=0    height=42    xoffset=0    yoffset=0    xadvance=0     page=0    chnl=0
char id=175    x=178    y=254    width=0    height=42    xoffset=0    yoffset=0    xadvance=0     page=0    chnl=0
char id=176    x=178    y=254    width=0    height=42    xoffset=0    yoffset=0    xadvance=0     page=0    chnl=0
char id=177    x=178    y=254    width=0    height=42    xoffset=0    yoffset=0    xadvance=0     page=0    chnl=0
char id=178    x=178    y=254    width=0    height=42    xoffset=0    yoffset=0    xadvance=0     page=0    chnl=0
char id=179    x=178    y=254    width=0    height=42    xoffset=0    yoffset=0    xadvance=0     page=0    chnl=0
char id=180    x=178    y=254    width=0    height=42    xoffset=0    yoffset=0    xadvance=0     page=0    chnl=0
char id=181    x=178    y=254    width=0    height=42    xoffset=0    yoffset=0    xadvance=0     page=0    chnl=0
char id=182    x=178    y=254    width=0    height=42    xoffset=0    yoffset=0    xadvance=0     page=0    chnl=0
char id=183    x=178    y=254    width=0    height=42    xoffset=0    yoffset=0    xadvance=0     page=0    chnl=0
char id=184    x=178    y=254    width=0    height=42    xoffset=0    yoffset=0    xadvance=0     page=0    chnl=0
char id=185    x=178    y=254    width=0    height=42    xoffset=0    yoffset=0    xadvance=0     page=0    chnl=0
char id=186    x=178    y=254    width=0    height=42    xoffset=0    yoffset=0    xadvance=0     page=0    chnl=0
char id=187    x=178    y=254    width=0    height=42    xoffset=0    yoffset=0    xadvance=0     page=0    chnl=0
char id=188    x=178    y=254    width=0    height=42    xoffset=0    yoffset=0    xadvance=0     page=0    chnl=0
char id=189    x=178    y=254    width=0    height=42    xoffset=0    yoffset=0    xadvance=0     page=0    chnl=0
char id=190    x=178    y=254    width=0    height=42    xoffset=0    yoffset=0    xadvance=0     page=0    chnl=0
char id=191    x=178    y=254    width=0    height=42    xoffset=0    yoffset=0    xadvance=0     page=0    chnl=0
char id=192    x=178    y=254    width=0    height=42    xoffset=0    yoffset=0    xadvance=0     page=0    chnl=0
char id=193    x=178    y=254    width=0    height=42    xoffset=0    yoffset=0    xadvance=0     page=0    chnl=0
char id=194    x=178    y=254    width=0    height=42    xoffset=0    yoffset=0    xadvance=0     page=0    chnl=0
char id=195    x=178    y=254    width=0    height=42    xoffset=0    yoffset=0    xadvance=0     page=0    chnl=0
char id=196    x=178    y=254    width=0    height=42    xoffset=0    yoffset=0    xadvance=0     page=0    chnl=0
char id=197    x=178    y=254    width=0    height=42    xoffset=0    yoffset=0    xadvance=0     page=0    chnl=0
char id=198    x=178    y=254    width=0    height=42    xoffset=0    yoffset=0    xadvance=0     page=0    chnl=0
char id=199    x=178    y=254    width=0    height=42    xoffset=0    yoffset=0    xadvance=0     page=0    chnl=0
char id=200    x=178    y=254    width=0    height=42    xoffset=0    yoffset=0    xadvance=0     page=0    chnl=0
char id=201    x=178    y=254    width=0    height=42    xoffset=0    yoffset=0    xadvance=0     page=0    chnl=0
char id=202    x=178    y=254    width=0    height=42    xoffset=0    yoffset=0    xadvance=0     page=0    chnl=0
char id=203    x=178    y=254    width=0    height=42    xoffset=0    yoffset=0    xadvance=0     page=0    chnl=0
char id=204    x=178    y=254    width=0    height=42    xoffset=0    yoffset=0    xadvance=0     page=0    chnl=0
char id=205    x=178    y=254    width=0    height=42    xoffset=0    yoffset=0    xadvance=0     page=0    chnl=0
char id=206    x=178    y=254    width=0    height=42    xoffset=0    yoffset=0    xadvance=0     page=0    chnl=0
char id=207    x=178    y=254    width=0    height=42    xoffset=0    yoffset=0    xadvance=0     page=0    chnl=0
char id=208    x=178    y=254    width=0    height=42    xoffset=0    yoffset=0    xadvance=0     page=0    chnl=0
char id=209    x=178    y=254    width=0    height=42    xoffset=0    yoffset=0    xadvance=0     page=0    chnl=0
char id=210    x=178    y=254    width=0    height=42    xoffset=0    yoffset=0    xadvance=0     page=0    chnl=0
char id=211    x=178    y=254    width=0    height=42    xoffset=0    yoffset=0    xadvance=0     page=0    chnl=0
char id=212    x=178    y=254    width=0    height=42    xoffset=0    yoffset=0    xadvance=0     page=0    chnl=0
char id=213    x=178    y=254    width=0    height=42    xoffset=0    yoffset=0    xadvance=0     page=0    chnl=0
char id=214    x=178    y=254    width=0    height=42    xoffset=0    yoffset=0    xadvance=0     page=0    chnl=0
char id=215    x=178    y=254    width=0    height=42    xoffset=0    yoffset=0    xadvance=0     page=0    chnl=0
char id=216    x=178    y=254    width=0    height=42    xoffset=0    yoffset=0    xadvance=0     page=0    chnl=0
char id=217    x=178    y=254    width=0    height=42    xoffset=0    yoffset=0    xadvance=0     page=0    chnl=0
char id=218    x=178    y=254    width=0    height=42    xoffset=0    yoffset=0    xadvance=0     page=0    chnl=0
char id=219    x=178    y=254    width=0    height=42    xoffset=0    yoffset=0    xadvance=0     page=0    chnl=0
char id=220    x=178    y=254    width=0    height=42    xoffset=0    yoffset=0    xadvance=0     page=0    chnl=0
char id=221    x=178    y=254    width=0    height=42    xoffset=0    yoffset=0    xadvance=0     page=0    chnl=0
char id=222    x=178    y=254    width=0    height=42    xoffset=0    yoffset=0    xadvance=0     page=0    chnl=0
char id=223    x=178    y=254    width=0    height=42    xoffset=0    yoffset=0    xadvance=0     page=0    chnl=0
char id=224    x=178    y=254    width=0    height=42    xoffset=0    yoffset=0    xadvance=0     page=0    chnl=0
char id=225    x=178    y=254    width=0    height=42    xoffset=0    yoffset=0    xadvance=0     page=0    chnl=0
char id=226    x=178    y=254    width=0    height=42    xoffset=0    yoffset=0    xadvance=0     page=0    chnl=0
char id=227    x=178    y=254    width=0    height=42    xoffset=0    yoffset=0    xadvance=0     page=0    chnl=0
char id=228    x=178    y=254    width=0    height=42    xoffset=0    yoffset=0    xadvance=0     page=0    chnl=0
char id=229    x=178    y=254    width=0    height=42    xoffset=0    yoffset=0    xadvance=0     page=0    chnl=0
char id=230    x=178    y=254    width=0    height=42    xoffset=0    yoffset=0    xadvance=0     page=0    chnl=0
char id=231    x=178    y=254    width=0    height=42    xoffset=0    yoffset=0    xadvance=0     page=0    chnl=0
char id=232    x=178    y=254    width=0    height=42    xoffset=0    yoffset=0    xadvance=0     page=0    chnl=0
char id=233    x=178    y=254    width=0    height=42    xoffset=0    yoffset=0    xadvance=0     page=0    chnl=0
char id=234    x=178    y=254    width=0    height=42    xoffset=0    yoffset=0    xadvance=0     page=0    chnl=0
char id=235    x=178    y=254    width=0    height=42    xoffset=0    yoffset=0    xadvance=0     page=0    chnl=0
char id=236    x=178    y=254    width=0    height=42    xoffset=0    yoffset=0    xadvance=0     page=0    chnl=0
char id=237    x=178    y=254    width=0    height=42    xoffset=0    yoffset=0    xadvance=0     page=0    chnl=0
char id=238    x=178    y=254    width=0    height=42    xoffset=0    yoffset=0    xadvance=0     page=0    chnl=0
char id=239    x=178    y=254    width=0    height=42    xoffset=0    yoffset=0    xadvance=0     page=0    chnl=0
char id=240    x=178    y=254    width=0    height=42    xoffset=0    yoffset=0    xadvance=0     page=0    chnl=0
char id=241    x=178    y=254    width=0    height=42    xoffset=0    yoffset=0    xadvance=0     page=0    chnl=0
char id=242    x=178    y=254    width=0    height=42    xoffset=0    yoffset=0    xadvance=0     page=0    chnl=0
char id=243    x=178    y=254    width=0    height=42    xoffset=0    yoffset=0    xadvance=0     page=0    chnl=0
char id=244    x=178    y=254    width=0    height=42    xoffset=0    yoffset=0    xadvance=0     page=0    chnl=0
char id=245    x=178    y=254    width=0    height=42    xoffset=0    yoffset=0    xadvance=0     page=0    chnl=0
char id=246    x=178    y=254    width=0    height=42    xoffset=0    yoffset=0    xadvance=0     page=0    chnl=0
char id=247    x=178    y=254    width=0    height=42    xoffset=0    yoffset=0    xadvance=0     page=0    chnl=0
char id=248    x=178    y=254    width=0    height=42    xoffset=0    yoffset=0    xadvance=0     page=0    chnl=0
char id=249    x=178    y=254    width=0    height=42    xoffset=0    yoffset=0    xadvance=0     page=0    chnl=0
char id=250    x=178    y=254    width=0    height=42    xoffset=0    yoffset=0    xadvance=0     page=0    chnl=0
char id=251    x=178    y=254    width=0    height=42    xoffset=0    yoffset=0    xadvance=0     page=0    chnl=0
char id=252    x=178    y=254    width=0    height=42    xoffset=0    yoffset=0    xadvance=0     page=0    chnl=0
char id=253    x=178    y=254    width=0    height=42    xoffset=0    yoffset=0    xadvance=0     page=0    chnl=0
char id=254    x=178    y=254    width=0    height=42    xoffset=0    yoffset=0    xadvance=0     page=0    chnl=0
char id=255    x=178    y=254    width=0    height=42    xoffset=0    yoffset=0    xadvance=0     page=0    chnl=0
char id=256    x=178    y=254    width=0    height=42    xoffset=0    yoffset=0    xadvance=0     page=0    chnl=0
